Text mining with tidy data principles
…
Tidy TED talks

The unnest_tokens() function transforms non-tidy text data into tidy text data. It takes three arguments:

the input dataframe that contains your text (often you will use the pipe %>% to send this argument to unnest_tokens()),

the output column that you want to unnest to, and

the input column that you want to unnest from.

tidy_talks

# A tibble: 2,005,342 × 3
   talk_id speaker word 
     <dbl> <chr>   <chr>
 1       1 Al Gore thank
 2       1 Al Gore you  
 3       1 Al Gore so   
 4       1 Al Gore much 
 5       1 Al Gore chris
 6       1 Al Gore and  
 7       1 Al Gore it's 
 8       1 Al Gore truly
 9       1 Al Gore a    
10       1 Al Gore great
# ℹ 2,005,332 more rows
…
We said before that tokenization is the process of identifying and breaking apart text into tokens, meaningful units of text; those meaningful units of text are most often single words in text analysis but they do not have to be! We can move beyond single words to other kinds of tokens, like n-grams. An n-gram is a consecutive sequence of n words. Let’s look at these TED talks and tokenize to bigrams, n-grams of order 2.

Use the same function for tokenizing and tidying to create the bigrams.

#ted_bigrams <- ted_talks %>% 
#  ___(bigram, text, token = "ngrams", n = 2)

#ted_bigrams

ted_bigrams <- ted_talks %>% 
  unnest_tokens(bigram, text, token = "ngrams", n = 2)

ted_bigrams

# A tibble: 2,004,350 × 3
   talk_id speaker bigram     
     <dbl> <chr>   <chr>      
 1       1 Al Gore thank you  
 2       1 Al Gore you so     
 3       1 Al Gore so much    
 4       1 Al Gore much chris 
 5       1 Al Gore chris and  
 6       1 Al Gore and it's   
 7       1 Al Gore it's truly 
 8       1 Al Gore truly a    
 9       1 Al Gore a great    
10       1 Al Gore great honor
# ℹ 2,004,340 more rows

Most common TED talk words

Let’s go back to single words. Now that our data in a tidy format, a whole world of analysis opportunity has opened up for us. We can start by computing term frequencies in just one line. What are the most common words in these TED talks?

Use count() to find the most common words.

#tidy_talks %>%
 # ___(word, sort = TRUE)

tidy_talks %>%
  count(word, sort = TRUE)

# A tibble: 41,303 × 2
   word      n
   <chr> <int>
 1 the   93853
 2 and   67710
 3 to    57089
 4 of    52313
 5 a     49129
 6 that  39019
 7 in    34728
 8 i     32793
 9 you   30013
10 is    28569
# ℹ 41,293 more rows
…
Within the anti_join(), add the call to get_stopwords().

Add the arguments to count() so we count up words and sort them with the largest groups at the top.

#tidy_talks %>%
 # anti_join(___) %>%
 # count(___)

tidy_talks %>%
  anti_join(get_stopwords()) %>%
  count(word, sort = TRUE)

Joining with `by = join_by(word)`

# A tibble: 41,129 × 2
   word       n
   <chr>  <int>
 1 can     9522
 2 one     7995
 3 like    7739
 4 people  7123
 5 now     6756
 6 just    6701
 7 going   5633
 8 know    5467
 9 think   4981
10 see     4760
# ℹ 41,119 more rows
…
tidy_talks %>%
  filter(speaker %in% c("Jane Goodall", "Temple Grandin")) %>%
  # remove stop words
  anti_join(get_stopwords()) %>%
  # count with two arguments
  count(speaker, word) %>%
  group_by(word) %>%
  filter(sum(n) > 10) %>%
  ungroup() %>%
  pivot_wider(names_from = "speaker", values_from = "n", values_fill = 0) 

Joining with `by = join_by(word)`

# A tibble: 49 × 3
   word        `Jane Goodall` `Temple Grandin`
   <chr>                <int>            <int>
 1 animals                 13                3
 2 around                  15                4
 3 can                     31               16
 4 chimpanzees             13                0
 5 different               13               13
 6 get                      5               16
 7 go                      11                5
 8 going                   11               20
 9 good                     7                5
10 got                      6               26
# ℹ 39 more rows
…
